{
  "objpath": "room1.obj",
  "mtlpath": "room1.mtl",
  "entrances": [
    {
      "x": -12.0454,
      "y": 31.9223,
      "orientation": 2,
      "width": 6.1663
    },
    {
      "x": 7.4567,
      "y": -32,
      "orientation": 0,
      "width": 4.90406
    }
  ]
}