# Blender v3.2.2 OBJ File: ''
# www.blender.org
mtllib room2.mtl
o Plane
v -32.000000 0.000000 32.000000
v 32.000000 0.000000 32.000000
v -32.000000 0.000000 -32.000000
v 32.000000 0.000000 -32.000000
v -31.869568 7.675429 31.498055
v 32.130432 7.675429 31.498055
v 32.033672 -0.154319 -31.918610
v 32.164104 7.521111 -32.420555
v -32.031803 0.101231 -32.005314
v -31.998129 -0.053088 -31.923927
v -31.867697 7.622341 -32.425873
v -32.000000 0.000000 31.937092
v -32.031803 0.101231 31.931778
v -31.998129 -0.053088 32.013165
v -31.867697 7.622341 31.511219
v 2.552640 0.000000 32.000000
v 7.456700 0.000000 32.000000
v 2.708054 7.675429 31.498055
v 7.389613 7.675429 31.498055
v -18.205273 -0.074894 -31.922781
v -12.045400 -0.084632 -31.922300
v -13.064448 7.592614 -32.424313
v -18.675434 7.601485 -32.424778
v -18.211700 0.029734 -31.929623
vt 0.000000 0.000000
vt 0.539885 0.000000
vt 0.616511 0.000000
vt 1.000000 0.000000
vt 1.000000 1.000000
vt 0.000000 1.000000
vt 0.613425 0.000000
vt 1.000000 0.000000
vt 1.000000 0.000000
vt 1.000000 0.000000
vt 1.000000 0.000000
vt 1.000000 0.000000
vt 1.000000 0.000000
vt 1.000000 0.000000
vt 1.000000 0.000000
vt 0.540275 0.000000
vt 0.000000 0.000000
vt 1.000000 0.000000
vt 1.000000 0.000000
vt 1.000000 0.000000
vt 1.000000 0.000000
vn 0.0000 1.0000 0.0000
vn 0.0000 -0.0653 -0.9979
vn -0.9999 0.0170 -0.0006
vn 0.0000 0.0653 0.9979
vn 0.9999 -0.0170 0.0000
usemtl Material.001
s off
f 1/1/1 16/2/1 17/3/1 2/4/1 4/5/1 3/6/1
f 2/4/2 19/7/2 6/8/2
f 2/4/3 8/9/3 7/10/3
f 8/9/4 21/11/4 7/10/4
f 10/12/5 11/13/5 15/14/5 14/15/5
f 18/16/2 16/2/2 1/1/2 5/17/2
f 23/18/4 11/13/4 10/12/4 20/19/4 24/20/4
f 2/4/2 17/3/2 19/7/2
f 2/4/3 6/8/3 8/9/3
f 8/9/4 22/21/4 21/11/4
l 4 9
l 9 13
l 3 12
